Library\Bee\artifacts\movedfrom\UnityEditor.TestRunner.ref.dll_4390446533460773852.movedfrom
Library\Bee\artifacts\movedfrom\UnityEditor.UI.ref.dll_6750382132457868446.movedfrom
Library\Bee\artifacts\movedfrom\UnityEngine.TestRunner.ref.dll_651978004708829639.movedfrom
Library\Bee\artifacts\movedfrom\UnityEngine.UI.ref.dll_1879130396959814921.movedfrom
Library\Bee\artifacts\movedfrom\UnityEditor.Graphs.dll_5300675593905090992.movedfrom
Library\Bee\artifacts\movedfrom\UnityEditor.CoreModule.dll_9930652050255521150.movedfrom
Library\Bee\artifacts\movedfrom\UnityEditor.DeviceSimulatorModule.dll_2080687693392990883.movedfrom
Library\Bee\artifacts\movedfrom\UnityEditor.dll_14916251778890746807.movedfrom
Library\Bee\artifacts\movedfrom\UnityEditor.GraphViewModule.dll_5126177646558489576.movedfrom
Library\Bee\artifacts\movedfrom\UnityEditor.PackageManagerUIModule.dll_18423736251272151386.movedfrom
Library\Bee\artifacts\movedfrom\UnityEditor.QuickSearchModule.dll_14995295028778147978.movedfrom
Library\Bee\artifacts\movedfrom\UnityEditor.SceneTemplateModule.dll_9110497947929392203.movedfrom
Library\Bee\artifacts\movedfrom\UnityEditor.UIBuilderModule.dll_11217486480272467228.movedfrom
Library\Bee\artifacts\movedfrom\UnityEditor.UIElementsModule.dll_17191304158319513594.movedfrom
Library\Bee\artifacts\movedfrom\UnityEditor.UIElementsSamplesModule.dll_1690351722984795923.movedfrom
Library\Bee\artifacts\movedfrom\UnityEditor.UIServiceModule.dll_15320847807277593910.movedfrom
Library\Bee\artifacts\movedfrom\UnityEditor.UnityConnectModule.dll_12721752243855266612.movedfrom
Library\Bee\artifacts\movedfrom\UnityEngine.AccessibilityModule.dll_12759939317275024360.movedfrom
Library\Bee\artifacts\movedfrom\UnityEngine.AIModule.dll_3275846498113237010.movedfrom
Library\Bee\artifacts\movedfrom\UnityEngine.AndroidJNIModule.dll_7844339125874589392.movedfrom
Library\Bee\artifacts\movedfrom\UnityEngine.AnimationModule.dll_1560870631468662926.movedfrom
Library\Bee\artifacts\movedfrom\UnityEngine.ARModule.dll_16638806160712699611.movedfrom
Library\Bee\artifacts\movedfrom\UnityEngine.AssetBundleModule.dll_1442049437502756220.movedfrom
Library\Bee\artifacts\movedfrom\UnityEngine.AudioModule.dll_14039240308761366016.movedfrom
Library\Bee\artifacts\movedfrom\UnityEngine.ClothModule.dll_3007775253988240612.movedfrom
Library\Bee\artifacts\movedfrom\UnityEngine.ClusterInputModule.dll_3470361445362656762.movedfrom
Library\Bee\artifacts\movedfrom\UnityEngine.ClusterRendererModule.dll_2489603152038486055.movedfrom
Library\Bee\artifacts\movedfrom\UnityEngine.CoreModule.dll_12461907392797446313.movedfrom
Library\Bee\artifacts\movedfrom\UnityEngine.CrashReportingModule.dll_12474236320659974113.movedfrom
Library\Bee\artifacts\movedfrom\UnityEngine.DirectorModule.dll_5094636861459284230.movedfrom
Library\Bee\artifacts\movedfrom\UnityEngine.dll_118627198369650844.movedfrom
Library\Bee\artifacts\movedfrom\UnityEngine.DSPGraphModule.dll_5477831410280895015.movedfrom
Library\Bee\artifacts\movedfrom\UnityEngine.GameCenterModule.dll_10892513127530033089.movedfrom
Library\Bee\artifacts\movedfrom\UnityEngine.GIModule.dll_14245569613276256300.movedfrom
Library\Bee\artifacts\movedfrom\UnityEngine.GridModule.dll_9971728983262635680.movedfrom
Library\Bee\artifacts\movedfrom\UnityEngine.HotReloadModule.dll_10876775393046207504.movedfrom
Library\Bee\artifacts\movedfrom\UnityEngine.ImageConversionModule.dll_10267880118023559195.movedfrom
Library\Bee\artifacts\movedfrom\UnityEngine.IMGUIModule.dll_18101380961433461217.movedfrom
Library\Bee\artifacts\movedfrom\UnityEngine.InputLegacyModule.dll_11909852164607511405.movedfrom
Library\Bee\artifacts\movedfrom\UnityEngine.InputModule.dll_2975522959907173028.movedfrom
Library\Bee\artifacts\movedfrom\UnityEngine.JSONSerializeModule.dll_1237349086449056882.movedfrom
Library\Bee\artifacts\movedfrom\UnityEngine.LocalizationModule.dll_7959546830021810419.movedfrom
Library\Bee\artifacts\movedfrom\UnityEngine.ParticleSystemModule.dll_13419694292218735.movedfrom
Library\Bee\artifacts\movedfrom\UnityEngine.PerformanceReportingModule.dll_16438903025215606376.movedfrom
Library\Bee\artifacts\movedfrom\UnityEngine.Physics2DModule.dll_7083954966280566819.movedfrom
Library\Bee\artifacts\movedfrom\UnityEngine.PhysicsModule.dll_16677301709997242577.movedfrom
Library\Bee\artifacts\movedfrom\UnityEngine.ProfilerModule.dll_8717282718389225491.movedfrom
Library\Bee\artifacts\movedfrom\UnityEngine.RuntimeInitializeOnLoadManagerInitializerModule.dll_5876311448213434092.movedfrom
Library\Bee\artifacts\movedfrom\UnityEngine.ScreenCaptureModule.dll_3104000444102306004.movedfrom
Library\Bee\artifacts\movedfrom\UnityEngine.SharedInternalsModule.dll_1337592618473034603.movedfrom
Library\Bee\artifacts\movedfrom\UnityEngine.SpriteMaskModule.dll_9247699326994777403.movedfrom
Library\Bee\artifacts\movedfrom\UnityEngine.SpriteShapeModule.dll_3270842228809502086.movedfrom
Library\Bee\artifacts\movedfrom\UnityEngine.StreamingModule.dll_14573156784036329420.movedfrom
Library\Bee\artifacts\movedfrom\UnityEngine.SubstanceModule.dll_12027237924717344218.movedfrom
Library\Bee\artifacts\movedfrom\UnityEngine.SubsystemsModule.dll_16934612036244761934.movedfrom
Library\Bee\artifacts\movedfrom\UnityEngine.TerrainModule.dll_123894045606199743.movedfrom
Library\Bee\artifacts\movedfrom\UnityEngine.TerrainPhysicsModule.dll_47945266066304508.movedfrom
Library\Bee\artifacts\movedfrom\UnityEngine.TextCoreModule.dll_16099978505037721878.movedfrom
Library\Bee\artifacts\movedfrom\UnityEngine.TextRenderingModule.dll_6076220113539229897.movedfrom
Library\Bee\artifacts\movedfrom\UnityEngine.TilemapModule.dll_11580039401876595400.movedfrom
Library\Bee\artifacts\movedfrom\UnityEngine.TLSModule.dll_10711465339178233189.movedfrom
Library\Bee\artifacts\movedfrom\UnityEngine.UIElementsModule.dll_17240400960310257989.movedfrom
Library\Bee\artifacts\movedfrom\UnityEngine.UIElementsNativeModule.dll_5343511162498101628.movedfrom
Library\Bee\artifacts\movedfrom\UnityEngine.UIModule.dll_2948102067904198078.movedfrom
Library\Bee\artifacts\movedfrom\UnityEngine.UmbraModule.dll_4443384624188995955.movedfrom
Library\Bee\artifacts\movedfrom\UnityEngine.UNETModule.dll_4582375962105120290.movedfrom
Library\Bee\artifacts\movedfrom\UnityEngine.UnityAnalyticsModule.dll_2292083642243974507.movedfrom
Library\Bee\artifacts\movedfrom\UnityEngine.UnityConnectModule.dll_11379543279789773791.movedfrom
Library\Bee\artifacts\movedfrom\UnityEngine.UnityCurlModule.dll_5243866460456710779.movedfrom
Library\Bee\artifacts\movedfrom\UnityEngine.UnityTestProtocolModule.dll_15219928006055543913.movedfrom
Library\Bee\artifacts\movedfrom\UnityEngine.UnityWebRequestAssetBundleModule.dll_331669596387754108.movedfrom
Library\Bee\artifacts\movedfrom\UnityEngine.UnityWebRequestAudioModule.dll_6638036551353555200.movedfrom
Library\Bee\artifacts\movedfrom\UnityEngine.UnityWebRequestModule.dll_11537622164874965658.movedfrom
Library\Bee\artifacts\movedfrom\UnityEngine.UnityWebRequestTextureModule.dll_11845279439676280533.movedfrom
Library\Bee\artifacts\movedfrom\UnityEngine.UnityWebRequestWWWModule.dll_720274060125545873.movedfrom
Library\Bee\artifacts\movedfrom\UnityEngine.VehiclesModule.dll_13724371023360299169.movedfrom
Library\Bee\artifacts\movedfrom\UnityEngine.VFXModule.dll_1550748348964542162.movedfrom
Library\Bee\artifacts\movedfrom\UnityEngine.VideoModule.dll_16708050157020850597.movedfrom
Library\Bee\artifacts\movedfrom\UnityEngine.VirtualTexturingModule.dll_7977189432777716231.movedfrom
Library\Bee\artifacts\movedfrom\UnityEngine.VRModule.dll_8915976879509388086.movedfrom
Library\Bee\artifacts\movedfrom\UnityEngine.WindModule.dll_2540155431028264722.movedfrom
Library\Bee\artifacts\movedfrom\UnityEngine.XRModule.dll_12572551251230394516.movedfrom
Library\Bee\artifacts\movedfrom\UnityEditor.Android.Extensions.dll_14904334711807596134.movedfrom
Library\Bee\artifacts\movedfrom\UnityEditor.WindowsStandalone.Extensions.dll_60302976355807746.movedfrom
Library\Bee\artifacts\movedfrom\Unity.Plastic.Antlr3.Runtime.dll_5049879315700633768.movedfrom
Library\Bee\artifacts\movedfrom\Unity.Plastic.Newtonsoft.Json.dll_4057586853367148045.movedfrom
Library\Bee\artifacts\movedfrom\Unity.VisualScripting.IonicZip.dll_6838025812202994880.movedfrom
Library\Bee\artifacts\movedfrom\Unity.VisualScripting.YamlDotNet.dll_17505476860409180092.movedfrom
Library\Bee\artifacts\movedfrom\Unity.VisualScripting.Antlr3.Runtime.dll_11843650452502314971.movedfrom